%YAML 1.1
%TAG !u! tag:unity3d.com,2011:
--- !u!162 &1
EditorUserSettings:
  m_ObjectHideFlags: 0
  serializedVersion: 4
  m_ConfigSettings:
    RecentlyUsedSceneGuid-0:
      value: 5a5757560101590a5d0c0e24427b5d44434e4c7a7b7a23677f2b4565b7b5353a
      flags: 0
    RecentlyUsedSceneGuid-1:
      value: 54500d575d545a0c58590a2711270d44424e4928297027697b284464e7b53760
      flags: 0
    RecentlyUsedSceneGuid-2:
      value: 000105505c5408090e0f5870462706444e164e2c2f7071682e701935b6b63261
      flags: 0
    RecentlyUsedSceneGuid-3:
      value: 52050c565d015c58580a5b2115210844174f4f7e2a2a7f34747e1e61b5e1633c
      flags: 0
    RecentlyUsedSceneGuid-4:
      value: 06065756060c0a5d5c0f0d26112659444f154c7e2e2a77622f7a4437e6b16d6c
      flags: 0
    RecentlyUsedSceneGuid-5:
      value: 0102565406050f020f5a0a2642745d44471540297b7f20677e7b4831e4b3656f
      flags: 0
    RecentlyUsedSceneGuid-6:
      value: 5b5056035c045b030b5a0f7448275c44401519282a7172632e284e62b2b9356a
      flags: 0
    RecentlyUsedSceneGuid-7:
      value: 515750535d020a095e080e73407b064443164d737f2b24367b2a1861b2b5313b
      flags: 0
    vcSharedLogLevel:
      value: 0d5e400f0650
      flags: 0
  m_VCAutomaticAdd: 1
  m_VCDebugCom: 0
  m_VCDebugCmd: 0
  m_VCDebugOut: 0
  m_SemanticMergeMode: 2
  m_DesiredImportWorkerCount: 2
  m_StandbyImportWorkerCount: 2
  m_IdleImportWorkerShutdownDelay: 60000
  m_VCShowFailedCheckout: 1
  m_VCOverwriteFailedCheckoutAssets: 1
  m_VCProjectOverlayIcons: 1
  m_VCHierarchyOverlayIcons: 1
  m_VCOtherOverlayIcons: 1
  m_VCAllowAsyncUpdate: 1
  m_ArtifactGarbageCollection: 1
